{
	'symbol': 'DOTUSDT',
	'id': 247343461,
	'orderId': 2438895048,
	'orderListId': -1,
	'price': '27.10000000',
	'qty': '0.40000000',
	'quoteQty': '10.84000000',
	'commission': '0.00001513',
	'commissionAsset': 'BNB',
	'time': 1639660960045,
	'isBuyer': False,
	'isMaker': True,
	'isBestMatch': True
}